%YAML 1.1
%TAG !u! tag:unity3d.com,2011:
--- !u!114 &11400000
MonoBehaviour:
  m_ObjectHideFlags: 0
  m_CorrespondingSourceObject: {fileID: 0}
  m_PrefabInstance: {fileID: 0}
  m_PrefabAsset: {fileID: 0}
  m_GameObject: {fileID: 0}
  m_Enabled: 1
  m_EditorHideFlags: 0
  m_Script: {fileID: 11500000, guid: e5874d8b95664aea8a8a0ba540c5e01b, type: 3}
  m_Name: WaterWeapon
  m_EditorClassIdentifier: 
  Name: Water
  Icon: {fileID: 21300000, guid: 4d6443feb7414ad439c731058d9eead4, type: 3}
  Type: 3
  MaxLevel: 8
  BaseDamage: 5
  BaseReload: 2
  ProjectileLifetimeLimit: 2
  HitLimit: 999999
  BaseSizeMultilpyer: 1
  Count: 1
  ProjectileFlightTime: 2
  FirstProjectilePrefab: {fileID: 1030607532501517557, guid: 8165b1fd18bf0f74abda56fd941d5c3f, type: 3}
  SecondProjectilePrefab: {fileID: 1030607532501517557, guid: 99a34d83d26b85e4594db60038077fdd, type: 3}
  WaterWeaponLevelUps:
  - Damage: 0
    Reload: 0
    BaseSizeMultilpier: 0
    ProjectileLifetimeLimit: 0
    Count: 0
    Description: "\u041D\u0430\u043D\u043E\u0441\u044F\u0449\u0438\u0435 \u0443\u0440\u043E\u043D
      \u0437\u043E\u043D\u044B"
  - Damage: 0
    Reload: 0
    BaseSizeMultilpier: 0.2
    ProjectileLifetimeLimit: 0
    Count: 1
    Description: "+1 \u0441\u043D\u0430\u0440\u044F\u0434. \u041E\u0431\u043B\u0430\u0441\u0442\u044C
      \u0443\u0432\u0435\u043B\u0438\u0447\u0435\u043D\u0430."
  - Damage: 5
    Reload: 0.5
    BaseSizeMultilpier: 0
    ProjectileLifetimeLimit: 0.5
    Count: 0
    Description: "\u0423\u0432\u0435\u043B\u0438\u0447\u0435\u0444\u043D\u0438\u0435
      \u0443\u0440\u043E\u043D\u0430 \u0438 \u043F\u0440\u043E\u0434\u043E\u043B\u0436\u0438\u0442\u0435\u043B\u044C\u043D\u043E\u0441\u0442\u0438"
  - Damage: 0
    Reload: 0
    BaseSizeMultilpier: 0.2
    ProjectileLifetimeLimit: 0
    Count: 1
    Description: "+1 \u0441\u043D\u0430\u0440\u044F\u0434. \u041E\u0431\u043B\u0430\u0441\u0442\u044C
      \u0443\u0432\u0435\u043B\u0438\u0447\u0435\u043D\u0430."
  - Damage: 5
    Reload: 0.25
    BaseSizeMultilpier: 0
    ProjectileLifetimeLimit: 0.25
    Count: 0
    Description: "\u0423\u0432\u0435\u043B\u0438\u0447\u0435\u0444\u043D\u0438\u0435
      \u0443\u0440\u043E\u043D\u0430 \u0438 \u043F\u0440\u043E\u0434\u043E\u043B\u0436\u0438\u0442\u0435\u043B\u044C\u043D\u043E\u0441\u0442\u0438"
  - Damage: 0
    Reload: 0
    BaseSizeMultilpier: 0.2
    ProjectileLifetimeLimit: 0
    Count: 1
    Description: "+1 \u0441\u043D\u0430\u0440\u044F\u0434. \u041E\u0431\u043B\u0430\u0441\u0442\u044C
      \u0443\u0432\u0435\u043B\u0438\u0447\u0435\u043D\u0430."
  - Damage: 5
    Reload: 0.25
    BaseSizeMultilpier: 0
    ProjectileLifetimeLimit: 0.25
    Count: 0
    Description: "\u0423\u0432\u0435\u043B\u0438\u0447\u0435\u0444\u043D\u0438\u0435
      \u0443\u0440\u043E\u043D\u0430 \u0438 \u043F\u0440\u043E\u0434\u043E\u043B\u0436\u0438\u0442\u0435\u043B\u044C\u043D\u043E\u0441\u0442\u0438"
  - Damage: 0
    Reload: 0
    BaseSizeMultilpier: 0.2
    ProjectileLifetimeLimit: 0
    Count: 1
    Description: "+1 \u0441\u043D\u0430\u0440\u044F\u0434. \u041E\u0431\u043B\u0430\u0441\u0442\u044C
      \u0443\u0432\u0435\u043B\u0438\u0447\u0435\u043D\u0430."
