%YAML 1.1
%TAG !u! tag:unity3d.com,2011:
--- !u!114 &11400000
MonoBehaviour:
  m_ObjectHideFlags: 0
  m_CorrespondingSourceObject: {fileID: 0}
  m_PrefabInstance: {fileID: 0}
  m_PrefabAsset: {fileID: 0}
  m_GameObject: {fileID: 0}
  m_Enabled: 1
  m_EditorHideFlags: 0
  m_Script: {fileID: 11500000, guid: cf0e4a62f4f7461da37f9bf3ada3aef0, type: 3}
  m_Name: WeaponConfig
  m_EditorClassIdentifier: 
  Weapons:
  - {fileID: 11400000, guid: 87167ac2796d55e4381e0540c28ac288, type: 2}
  - {fileID: 11400000, guid: 17e8b1e67d2ea1249bf139bd7517c602, type: 2}
  - {fileID: 11400000, guid: 3fc47a6feab643142b5e1d032aae9c0d, type: 2}
  - {fileID: 11400000, guid: ef0c7d9dedcd4844f8fb8ec03f0fde62, type: 2}
