%YAML 1.1
%TAG !u! tag:unity3d.com,2011:
--- !u!114 &1886829605
MonoBehaviour:
  m_ObjectHideFlags: 0
  m_CorrespondingSourceObject: {fileID: 0}
  m_PrefabInstance: {fileID: 0}
  m_PrefabAsset: {fileID: 0}
  m_GameObject: {fileID: 794412519430347902}
  m_Enabled: 1
  m_EditorHideFlags: 0
  m_Script: {fileID: 11500000, guid: a7c05bb4116047dab941a77e442f6678, type: 3}
  m_Name: 
  m_EditorClassIdentifier: 
  value:
    Result: {fileID: 879317717085012704}
--- !u!114 &1886829606
MonoBehaviour:
  m_ObjectHideFlags: 0
  m_CorrespondingSourceObject: {fileID: 0}
  m_PrefabInstance: {fileID: 0}
  m_PrefabAsset: {fileID: 0}
  m_GameObject: {fileID: 794412519430347902}
  m_Enabled: 1
  m_EditorHideFlags: 0
  m_Script: {fileID: 11500000, guid: 236f59dc59fdd4c8a846a7fc5bb735ba, type: 3}
  m_Name: 
  m_EditorClassIdentifier: 
  convertMode: 0
  customWorld: 
--- !u!1001 &1723374612016040695
PrefabInstance:
  m_ObjectHideFlags: 0
  serializedVersion: 2
  m_Modification:
    m_TransformParent: {fileID: 0}
    m_Modifications:
    - target: {fileID: 151148704188020941, guid: afde8d45549c195439af2318c60be829, type: 3}
      propertyPath: m_AnchorMax.y
      value: 0
      objectReference: {fileID: 0}
    - target: {fileID: 151148704188020941, guid: afde8d45549c195439af2318c60be829, type: 3}
      propertyPath: m_AnchorMin.y
      value: 0
      objectReference: {fileID: 0}
    - target: {fileID: 151148704188020941, guid: afde8d45549c195439af2318c60be829, type: 3}
      propertyPath: m_SizeDelta.x
      value: 0
      objectReference: {fileID: 0}
    - target: {fileID: 151148704188020941, guid: afde8d45549c195439af2318c60be829, type: 3}
      propertyPath: m_SizeDelta.y
      value: 0
      objectReference: {fileID: 0}
    - target: {fileID: 151148704188020941, guid: afde8d45549c195439af2318c60be829, type: 3}
      propertyPath: m_AnchoredPosition.x
      value: 119.11
      objectReference: {fileID: 0}
    - target: {fileID: 151148704188020941, guid: afde8d45549c195439af2318c60be829, type: 3}
      propertyPath: m_AnchoredPosition.y
      value: 0
      objectReference: {fileID: 0}
    - target: {fileID: 695768280056693827, guid: afde8d45549c195439af2318c60be829, type: 3}
      propertyPath: m_AnchorMax.y
      value: 0
      objectReference: {fileID: 0}
    - target: {fileID: 695768280056693827, guid: afde8d45549c195439af2318c60be829, type: 3}
      propertyPath: m_AnchorMin.y
      value: 0
      objectReference: {fileID: 0}
    - target: {fileID: 695768280056693827, guid: afde8d45549c195439af2318c60be829, type: 3}
      propertyPath: m_SizeDelta.x
      value: 0
      objectReference: {fileID: 0}
    - target: {fileID: 695768280056693827, guid: afde8d45549c195439af2318c60be829, type: 3}
      propertyPath: m_SizeDelta.y
      value: 0
      objectReference: {fileID: 0}
    - target: {fileID: 695768280056693827, guid: afde8d45549c195439af2318c60be829, type: 3}
      propertyPath: m_AnchoredPosition.x
      value: 0
      objectReference: {fileID: 0}
    - target: {fileID: 695768280056693827, guid: afde8d45549c195439af2318c60be829, type: 3}
      propertyPath: m_AnchoredPosition.y
      value: 0
      objectReference: {fileID: 0}
    - target: {fileID: 1665577781126332352, guid: afde8d45549c195439af2318c60be829, type: 3}
      propertyPath: m_AnchorMax.y
      value: 0
      objectReference: {fileID: 0}
    - target: {fileID: 1665577781126332352, guid: afde8d45549c195439af2318c60be829, type: 3}
      propertyPath: m_AnchorMin.y
      value: 0
      objectReference: {fileID: 0}
    - target: {fileID: 1665577781126332352, guid: afde8d45549c195439af2318c60be829, type: 3}
      propertyPath: m_SizeDelta.x
      value: 0
      objectReference: {fileID: 0}
    - target: {fileID: 1665577781126332352, guid: afde8d45549c195439af2318c60be829, type: 3}
      propertyPath: m_SizeDelta.y
      value: 0
      objectReference: {fileID: 0}
    - target: {fileID: 1665577781126332352, guid: afde8d45549c195439af2318c60be829, type: 3}
      propertyPath: m_AnchoredPosition.x
      value: 0
      objectReference: {fileID: 0}
    - target: {fileID: 1665577781126332352, guid: afde8d45549c195439af2318c60be829, type: 3}
      propertyPath: m_AnchoredPosition.y
      value: 0
      objectReference: {fileID: 0}
    - target: {fileID: 2006739400031717399, guid: afde8d45549c195439af2318c60be829, type: 3}
      propertyPath: m_textAlignment
      value: 65535
      objectReference: {fileID: 0}
    - target: {fileID: 2006739400031717399, guid: afde8d45549c195439af2318c60be829, type: 3}
      propertyPath: m_TextStyleHashCode
      value: -1183493901
      objectReference: {fileID: 0}
    - target: {fileID: 2006739400031717399, guid: afde8d45549c195439af2318c60be829, type: 3}
      propertyPath: m_VerticalAlignment
      value: 512
      objectReference: {fileID: 0}
    - target: {fileID: 2006739400031717399, guid: afde8d45549c195439af2318c60be829, type: 3}
      propertyPath: m_HorizontalAlignment
      value: 2
      objectReference: {fileID: 0}
    - target: {fileID: 2066369017271840786, guid: afde8d45549c195439af2318c60be829, type: 3}
      propertyPath: m_AnchorMax.y
      value: 0
      objectReference: {fileID: 0}
    - target: {fileID: 2066369017271840786, guid: afde8d45549c195439af2318c60be829, type: 3}
      propertyPath: m_AnchorMin.y
      value: 0
      objectReference: {fileID: 0}
    - target: {fileID: 2066369017271840786, guid: afde8d45549c195439af2318c60be829, type: 3}
      propertyPath: m_SizeDelta.x
      value: 0
      objectReference: {fileID: 0}
    - target: {fileID: 2066369017271840786, guid: afde8d45549c195439af2318c60be829, type: 3}
      propertyPath: m_SizeDelta.y
      value: 0
      objectReference: {fileID: 0}
    - target: {fileID: 2066369017271840786, guid: afde8d45549c195439af2318c60be829, type: 3}
      propertyPath: m_AnchoredPosition.x
      value: 0
      objectReference: {fileID: 0}
    - target: {fileID: 2066369017271840786, guid: afde8d45549c195439af2318c60be829, type: 3}
      propertyPath: m_AnchoredPosition.y
      value: 0
      objectReference: {fileID: 0}
    - target: {fileID: 2084315528530253449, guid: afde8d45549c195439af2318c60be829, type: 3}
      propertyPath: m_Name
      value: End Game Panel Variant
      objectReference: {fileID: 0}
    - target: {fileID: 2223681618357623858, guid: afde8d45549c195439af2318c60be829, type: 3}
      propertyPath: m_AnchorMax.y
      value: 0
      objectReference: {fileID: 0}
    - target: {fileID: 2223681618357623858, guid: afde8d45549c195439af2318c60be829, type: 3}
      propertyPath: m_AnchorMin.y
      value: 0
      objectReference: {fileID: 0}
    - target: {fileID: 2223681618357623858, guid: afde8d45549c195439af2318c60be829, type: 3}
      propertyPath: m_SizeDelta.x
      value: 0
      objectReference: {fileID: 0}
    - target: {fileID: 2223681618357623858, guid: afde8d45549c195439af2318c60be829, type: 3}
      propertyPath: m_SizeDelta.y
      value: 0
      objectReference: {fileID: 0}
    - target: {fileID: 2223681618357623858, guid: afde8d45549c195439af2318c60be829, type: 3}
      propertyPath: m_AnchoredPosition.x
      value: 0
      objectReference: {fileID: 0}
    - target: {fileID: 2223681618357623858, guid: afde8d45549c195439af2318c60be829, type: 3}
      propertyPath: m_AnchoredPosition.y
      value: 0
      objectReference: {fileID: 0}
    - target: {fileID: 2405833925864298367, guid: afde8d45549c195439af2318c60be829, type: 3}
      propertyPath: m_text
      value: EXIT
      objectReference: {fileID: 0}
    - target: {fileID: 2405833925864298367, guid: afde8d45549c195439af2318c60be829, type: 3}
      propertyPath: m_textAlignment
      value: 65535
      objectReference: {fileID: 0}
    - target: {fileID: 2405833925864298367, guid: afde8d45549c195439af2318c60be829, type: 3}
      propertyPath: m_TextStyleHashCode
      value: -1183493901
      objectReference: {fileID: 0}
    - target: {fileID: 2405833925864298367, guid: afde8d45549c195439af2318c60be829, type: 3}
      propertyPath: m_VerticalAlignment
      value: 512
      objectReference: {fileID: 0}
    - target: {fileID: 2405833925864298367, guid: afde8d45549c195439af2318c60be829, type: 3}
      propertyPath: m_HorizontalAlignment
      value: 2
      objectReference: {fileID: 0}
    - target: {fileID: 2650638358849812904, guid: afde8d45549c195439af2318c60be829, type: 3}
      propertyPath: m_Pivot.x
      value: 0.5
      objectReference: {fileID: 0}
    - target: {fileID: 2650638358849812904, guid: afde8d45549c195439af2318c60be829, type: 3}
      propertyPath: m_Pivot.y
      value: 0.5
      objectReference: {fileID: 0}
    - target: {fileID: 2650638358849812904, guid: afde8d45549c195439af2318c60be829, type: 3}
      propertyPath: m_RootOrder
      value: 0
      objectReference: {fileID: 0}
    - target: {fileID: 2650638358849812904, guid: afde8d45549c195439af2318c60be829, type: 3}
      propertyPath: m_AnchorMax.x
      value: 1
      objectReference: {fileID: 0}
    - target: {fileID: 2650638358849812904, guid: afde8d45549c195439af2318c60be829, type: 3}
      propertyPath: m_AnchorMax.y
      value: 1
      objectReference: {fileID: 0}
    - target: {fileID: 2650638358849812904, guid: afde8d45549c195439af2318c60be829, type: 3}
      propertyPath: m_AnchorMin.x
      value: 0
      objectReference: {fileID: 0}
    - target: {fileID: 2650638358849812904, guid: afde8d45549c195439af2318c60be829, type: 3}
      propertyPath: m_AnchorMin.y
      value: 0
      objectReference: {fileID: 0}
    - target: {fileID: 2650638358849812904, guid: afde8d45549c195439af2318c60be829, type: 3}
      propertyPath: m_SizeDelta.x
      value: 0
      objectReference: {fileID: 0}
    - target: {fileID: 2650638358849812904, guid: afde8d45549c195439af2318c60be829, type: 3}
      propertyPath: m_SizeDelta.y
      value: 0
      objectReference: {fileID: 0}
    - target: {fileID: 2650638358849812904, guid: afde8d45549c195439af2318c60be829, type: 3}
      propertyPath: m_LocalPosition.x
      value: 0
      objectReference: {fileID: 0}
    - target: {fileID: 2650638358849812904, guid: afde8d45549c195439af2318c60be829, type: 3}
      propertyPath: m_LocalPosition.y
      value: 0
      objectReference: {fileID: 0}
    - target: {fileID: 2650638358849812904, guid: afde8d45549c195439af2318c60be829, type: 3}
      propertyPath: m_LocalPosition.z
      value: 0
      objectReference: {fileID: 0}
    - target: {fileID: 2650638358849812904, guid: afde8d45549c195439af2318c60be829, type: 3}
      propertyPath: m_LocalRotation.w
      value: 1
      objectReference: {fileID: 0}
    - target: {fileID: 2650638358849812904, guid: afde8d45549c195439af2318c60be829, type: 3}
      propertyPath: m_LocalRotation.x
      value: 0
      objectReference: {fileID: 0}
    - target: {fileID: 2650638358849812904, guid: afde8d45549c195439af2318c60be829, type: 3}
      propertyPath: m_LocalRotation.y
      value: 0
      objectReference: {fileID: 0}
    - target: {fileID: 2650638358849812904, guid: afde8d45549c195439af2318c60be829, type: 3}
      propertyPath: m_LocalRotation.z
      value: 0
      objectReference: {fileID: 0}
    - target: {fileID: 2650638358849812904, guid: afde8d45549c195439af2318c60be829, type: 3}
      propertyPath: m_AnchoredPosition.x
      value: 0
      objectReference: {fileID: 0}
    - target: {fileID: 2650638358849812904, guid: afde8d45549c195439af2318c60be829, type: 3}
      propertyPath: m_AnchoredPosition.y
      value: -1298
      objectReference: {fileID: 0}
    - target: {fileID: 2650638358849812904, guid: afde8d45549c195439af2318c60be829, type: 3}
      propertyPath: m_LocalEulerAnglesHint.x
      value: 0
      objectReference: {fileID: 0}
    - target: {fileID: 2650638358849812904, guid: afde8d45549c195439af2318c60be829, type: 3}
      propertyPath: m_LocalEulerAnglesHint.y
      value: 0
      objectReference: {fileID: 0}
    - target: {fileID: 2650638358849812904, guid: afde8d45549c195439af2318c60be829, type: 3}
      propertyPath: m_LocalEulerAnglesHint.z
      value: 0
      objectReference: {fileID: 0}
    - target: {fileID: 3394577876862343436, guid: afde8d45549c195439af2318c60be829, type: 3}
      propertyPath: ViewName
      value: EndGame
      objectReference: {fileID: 0}
    - target: {fileID: 3394577876862343436, guid: afde8d45549c195439af2318c60be829, type: 3}
      propertyPath: ViewCategory
      value: Gameplay
      objectReference: {fileID: 0}
    - target: {fileID: 3556960451544650158, guid: afde8d45549c195439af2318c60be829, type: 3}
      propertyPath: m_AnchorMax.y
      value: 0
      objectReference: {fileID: 0}
    - target: {fileID: 3556960451544650158, guid: afde8d45549c195439af2318c60be829, type: 3}
      propertyPath: m_AnchorMin.y
      value: 0
      objectReference: {fileID: 0}
    - target: {fileID: 3556960451544650158, guid: afde8d45549c195439af2318c60be829, type: 3}
      propertyPath: m_SizeDelta.x
      value: 0
      objectReference: {fileID: 0}
    - target: {fileID: 3556960451544650158, guid: afde8d45549c195439af2318c60be829, type: 3}
      propertyPath: m_SizeDelta.y
      value: 0
      objectReference: {fileID: 0}
    - target: {fileID: 3556960451544650158, guid: afde8d45549c195439af2318c60be829, type: 3}
      propertyPath: m_AnchoredPosition.x
      value: 0
      objectReference: {fileID: 0}
    - target: {fileID: 3556960451544650158, guid: afde8d45549c195439af2318c60be829, type: 3}
      propertyPath: m_AnchoredPosition.y
      value: 0
      objectReference: {fileID: 0}
    - target: {fileID: 4384835421313068697, guid: afde8d45549c195439af2318c60be829, type: 3}
      propertyPath: m_SizeDelta.x
      value: 0
      objectReference: {fileID: 0}
    - target: {fileID: 4384835421313068697, guid: afde8d45549c195439af2318c60be829, type: 3}
      propertyPath: m_SizeDelta.y
      value: 0
      objectReference: {fileID: 0}
    - target: {fileID: 6900213605799315446, guid: afde8d45549c195439af2318c60be829, type: 3}
      propertyPath: ButtonName
      value: Exit
      objectReference: {fileID: 0}
    - target: {fileID: 6900213605799315446, guid: afde8d45549c195439af2318c60be829, type: 3}
      propertyPath: ButtonCategory
      value: Gameplay
      objectReference: {fileID: 0}
    - target: {fileID: 7130471045854044756, guid: afde8d45549c195439af2318c60be829, type: 3}
      propertyPath: m_AnchorMax.y
      value: 0
      objectReference: {fileID: 0}
    - target: {fileID: 7130471045854044756, guid: afde8d45549c195439af2318c60be829, type: 3}
      propertyPath: m_AnchorMin.y
      value: 0
      objectReference: {fileID: 0}
    - target: {fileID: 7130471045854044756, guid: afde8d45549c195439af2318c60be829, type: 3}
      propertyPath: m_SizeDelta.y
      value: 0
      objectReference: {fileID: 0}
    - target: {fileID: 7130471045854044756, guid: afde8d45549c195439af2318c60be829, type: 3}
      propertyPath: m_AnchoredPosition.x
      value: 0
      objectReference: {fileID: 0}
    - target: {fileID: 7130471045854044756, guid: afde8d45549c195439af2318c60be829, type: 3}
      propertyPath: m_AnchoredPosition.y
      value: 0
      objectReference: {fileID: 0}
    m_RemovedComponents: []
  m_SourcePrefab: {fileID: 100100000, guid: afde8d45549c195439af2318c60be829, type: 3}
--- !u!1 &794412519430347902 stripped
GameObject:
  m_CorrespondingSourceObject: {fileID: 2084315528530253449, guid: afde8d45549c195439af2318c60be829, type: 3}
  m_PrefabInstance: {fileID: 1723374612016040695}
  m_PrefabAsset: {fileID: 0}
--- !u!114 &879317717085012704 stripped
MonoBehaviour:
  m_CorrespondingSourceObject: {fileID: 2006739400031717399, guid: afde8d45549c195439af2318c60be829, type: 3}
  m_PrefabInstance: {fileID: 1723374612016040695}
  m_PrefabAsset: {fileID: 0}
  m_GameObject: {fileID: 0}
  m_Enabled: 1
  m_EditorHideFlags: 0
  m_Script: {fileID: 11500000, guid: f4688fdb7df04437aeb418b961361dc5, type: 3}
  m_Name: 
  m_EditorClassIdentifier: 
