%YAML 1.1
%TAG !u! tag:unity3d.com,2011:
--- !u!1001 &4928552797500952838
PrefabInstance:
  m_ObjectHideFlags: 0
  serializedVersion: 2
  m_Modification:
    m_TransformParent: {fileID: 6516258390741642402}
    m_Modifications:
    - target: {fileID: 736730136008502156, guid: 6544d526fe41fae4e804f79de400ac2c, type: 3}
      propertyPath: m_Pivot.x
      value: 0.5
      objectReference: {fileID: 0}
    - target: {fileID: 736730136008502156, guid: 6544d526fe41fae4e804f79de400ac2c, type: 3}
      propertyPath: m_Pivot.y
      value: 0.5
      objectReference: {fileID: 0}
    - target: {fileID: 736730136008502156, guid: 6544d526fe41fae4e804f79de400ac2c, type: 3}
      propertyPath: m_RootOrder
      value: 0
      objectReference: {fileID: 0}
    - target: {fileID: 736730136008502156, guid: 6544d526fe41fae4e804f79de400ac2c, type: 3}
      propertyPath: m_AnchorMax.x
      value: 0
      objectReference: {fileID: 0}
    - target: {fileID: 736730136008502156, guid: 6544d526fe41fae4e804f79de400ac2c, type: 3}
      propertyPath: m_AnchorMax.y
      value: 0
      objectReference: {fileID: 0}
    - target: {fileID: 736730136008502156, guid: 6544d526fe41fae4e804f79de400ac2c, type: 3}
      propertyPath: m_AnchorMin.x
      value: 0
      objectReference: {fileID: 0}
    - target: {fileID: 736730136008502156, guid: 6544d526fe41fae4e804f79de400ac2c, type: 3}
      propertyPath: m_AnchorMin.y
      value: 0
      objectReference: {fileID: 0}
    - target: {fileID: 736730136008502156, guid: 6544d526fe41fae4e804f79de400ac2c, type: 3}
      propertyPath: m_SizeDelta.x
      value: 0
      objectReference: {fileID: 0}
    - target: {fileID: 736730136008502156, guid: 6544d526fe41fae4e804f79de400ac2c, type: 3}
      propertyPath: m_SizeDelta.y
      value: 0
      objectReference: {fileID: 0}
    - target: {fileID: 736730136008502156, guid: 6544d526fe41fae4e804f79de400ac2c, type: 3}
      propertyPath: m_LocalPosition.x
      value: 0
      objectReference: {fileID: 0}
    - target: {fileID: 736730136008502156, guid: 6544d526fe41fae4e804f79de400ac2c, type: 3}
      propertyPath: m_LocalPosition.y
      value: 0
      objectReference: {fileID: 0}
    - target: {fileID: 736730136008502156, guid: 6544d526fe41fae4e804f79de400ac2c, type: 3}
      propertyPath: m_LocalPosition.z
      value: 0
      objectReference: {fileID: 0}
    - target: {fileID: 736730136008502156, guid: 6544d526fe41fae4e804f79de400ac2c, type: 3}
      propertyPath: m_LocalRotation.w
      value: 1
      objectReference: {fileID: 0}
    - target: {fileID: 736730136008502156, guid: 6544d526fe41fae4e804f79de400ac2c, type: 3}
      propertyPath: m_LocalRotation.x
      value: 0
      objectReference: {fileID: 0}
    - target: {fileID: 736730136008502156, guid: 6544d526fe41fae4e804f79de400ac2c, type: 3}
      propertyPath: m_LocalRotation.y
      value: 0
      objectReference: {fileID: 0}
    - target: {fileID: 736730136008502156, guid: 6544d526fe41fae4e804f79de400ac2c, type: 3}
      propertyPath: m_LocalRotation.z
      value: 0
      objectReference: {fileID: 0}
    - target: {fileID: 736730136008502156, guid: 6544d526fe41fae4e804f79de400ac2c, type: 3}
      propertyPath: m_AnchoredPosition.x
      value: 0
      objectReference: {fileID: 0}
    - target: {fileID: 736730136008502156, guid: 6544d526fe41fae4e804f79de400ac2c, type: 3}
      propertyPath: m_AnchoredPosition.y
      value: 0
      objectReference: {fileID: 0}
    - target: {fileID: 736730136008502156, guid: 6544d526fe41fae4e804f79de400ac2c, type: 3}
      propertyPath: m_LocalEulerAnglesHint.x
      value: 0
      objectReference: {fileID: 0}
    - target: {fileID: 736730136008502156, guid: 6544d526fe41fae4e804f79de400ac2c, type: 3}
      propertyPath: m_LocalEulerAnglesHint.y
      value: 0
      objectReference: {fileID: 0}
    - target: {fileID: 736730136008502156, guid: 6544d526fe41fae4e804f79de400ac2c, type: 3}
      propertyPath: m_LocalEulerAnglesHint.z
      value: 0
      objectReference: {fileID: 0}
    - target: {fileID: 2521317063589804208, guid: 6544d526fe41fae4e804f79de400ac2c, type: 3}
      propertyPath: m_text
      value: Exit
      objectReference: {fileID: 0}
    - target: {fileID: 2521317063589804208, guid: 6544d526fe41fae4e804f79de400ac2c, type: 3}
      propertyPath: m_textAlignment
      value: 65535
      objectReference: {fileID: 0}
    - target: {fileID: 2521317063589804208, guid: 6544d526fe41fae4e804f79de400ac2c, type: 3}
      propertyPath: m_TextStyleHashCode
      value: -1183493901
      objectReference: {fileID: 0}
    - target: {fileID: 2521317063589804208, guid: 6544d526fe41fae4e804f79de400ac2c, type: 3}
      propertyPath: m_VerticalAlignment
      value: 512
      objectReference: {fileID: 0}
    - target: {fileID: 2521317063589804208, guid: 6544d526fe41fae4e804f79de400ac2c, type: 3}
      propertyPath: m_HorizontalAlignment
      value: 2
      objectReference: {fileID: 0}
    - target: {fileID: 6647768936493851170, guid: 6544d526fe41fae4e804f79de400ac2c, type: 3}
      propertyPath: m_Name
      value: Button - 1 @ 256x96 - Rounded - Text
      objectReference: {fileID: 0}
    - target: {fileID: 6655407657037555769, guid: 6544d526fe41fae4e804f79de400ac2c, type: 3}
      propertyPath: ButtonName
      value: Exit
      objectReference: {fileID: 0}
    - target: {fileID: 6655407657037555769, guid: 6544d526fe41fae4e804f79de400ac2c, type: 3}
      propertyPath: ButtonCategory
      value: Gameplay
      objectReference: {fileID: 0}
    m_RemovedComponents: []
  m_SourcePrefab: {fileID: 100100000, guid: 6544d526fe41fae4e804f79de400ac2c, type: 3}
--- !u!1001 &6577096653079914532
PrefabInstance:
  m_ObjectHideFlags: 0
  serializedVersion: 2
  m_Modification:
    m_TransformParent: {fileID: 8619763760088911134}
    m_Modifications:
    - target: {fileID: 62266509329853521, guid: ddc92421a5af8d14a88191f7eda0c809, type: 3}
      propertyPath: m_Pivot.x
      value: 0.5
      objectReference: {fileID: 0}
    - target: {fileID: 62266509329853521, guid: ddc92421a5af8d14a88191f7eda0c809, type: 3}
      propertyPath: m_Pivot.y
      value: 0.5
      objectReference: {fileID: 0}
    - target: {fileID: 62266509329853521, guid: ddc92421a5af8d14a88191f7eda0c809, type: 3}
      propertyPath: m_RootOrder
      value: 0
      objectReference: {fileID: 0}
    - target: {fileID: 62266509329853521, guid: ddc92421a5af8d14a88191f7eda0c809, type: 3}
      propertyPath: m_AnchorMax.x
      value: 0
      objectReference: {fileID: 0}
    - target: {fileID: 62266509329853521, guid: ddc92421a5af8d14a88191f7eda0c809, type: 3}
      propertyPath: m_AnchorMax.y
      value: 0
      objectReference: {fileID: 0}
    - target: {fileID: 62266509329853521, guid: ddc92421a5af8d14a88191f7eda0c809, type: 3}
      propertyPath: m_AnchorMin.x
      value: 0
      objectReference: {fileID: 0}
    - target: {fileID: 62266509329853521, guid: ddc92421a5af8d14a88191f7eda0c809, type: 3}
      propertyPath: m_AnchorMin.y
      value: 0
      objectReference: {fileID: 0}
    - target: {fileID: 62266509329853521, guid: ddc92421a5af8d14a88191f7eda0c809, type: 3}
      propertyPath: m_SizeDelta.x
      value: 0
      objectReference: {fileID: 0}
    - target: {fileID: 62266509329853521, guid: ddc92421a5af8d14a88191f7eda0c809, type: 3}
      propertyPath: m_SizeDelta.y
      value: 0
      objectReference: {fileID: 0}
    - target: {fileID: 62266509329853521, guid: ddc92421a5af8d14a88191f7eda0c809, type: 3}
      propertyPath: m_LocalPosition.x
      value: 0
      objectReference: {fileID: 0}
    - target: {fileID: 62266509329853521, guid: ddc92421a5af8d14a88191f7eda0c809, type: 3}
      propertyPath: m_LocalPosition.y
      value: 0
      objectReference: {fileID: 0}
    - target: {fileID: 62266509329853521, guid: ddc92421a5af8d14a88191f7eda0c809, type: 3}
      propertyPath: m_LocalPosition.z
      value: 0
      objectReference: {fileID: 0}
    - target: {fileID: 62266509329853521, guid: ddc92421a5af8d14a88191f7eda0c809, type: 3}
      propertyPath: m_LocalRotation.w
      value: 1
      objectReference: {fileID: 0}
    - target: {fileID: 62266509329853521, guid: ddc92421a5af8d14a88191f7eda0c809, type: 3}
      propertyPath: m_LocalRotation.x
      value: -0
      objectReference: {fileID: 0}
    - target: {fileID: 62266509329853521, guid: ddc92421a5af8d14a88191f7eda0c809, type: 3}
      propertyPath: m_LocalRotation.y
      value: -0
      objectReference: {fileID: 0}
    - target: {fileID: 62266509329853521, guid: ddc92421a5af8d14a88191f7eda0c809, type: 3}
      propertyPath: m_LocalRotation.z
      value: -0
      objectReference: {fileID: 0}
    - target: {fileID: 62266509329853521, guid: ddc92421a5af8d14a88191f7eda0c809, type: 3}
      propertyPath: m_AnchoredPosition.x
      value: 233.44
      objectReference: {fileID: 0}
    - target: {fileID: 62266509329853521, guid: ddc92421a5af8d14a88191f7eda0c809, type: 3}
      propertyPath: m_AnchoredPosition.y
      value: 0
      objectReference: {fileID: 0}
    - target: {fileID: 62266509329853521, guid: ddc92421a5af8d14a88191f7eda0c809, type: 3}
      propertyPath: m_LocalEulerAnglesHint.x
      value: 0
      objectReference: {fileID: 0}
    - target: {fileID: 62266509329853521, guid: ddc92421a5af8d14a88191f7eda0c809, type: 3}
      propertyPath: m_LocalEulerAnglesHint.y
      value: 0
      objectReference: {fileID: 0}
    - target: {fileID: 62266509329853521, guid: ddc92421a5af8d14a88191f7eda0c809, type: 3}
      propertyPath: m_LocalEulerAnglesHint.z
      value: 0
      objectReference: {fileID: 0}
    - target: {fileID: 1809485146119380107, guid: ddc92421a5af8d14a88191f7eda0c809, type: 3}
      propertyPath: m_text
      value: Game Paused
      objectReference: {fileID: 0}
    - target: {fileID: 1809485146119380107, guid: ddc92421a5af8d14a88191f7eda0c809, type: 3}
      propertyPath: m_textAlignment
      value: 65535
      objectReference: {fileID: 0}
    - target: {fileID: 1809485146119380107, guid: ddc92421a5af8d14a88191f7eda0c809, type: 3}
      propertyPath: m_TextStyleHashCode
      value: -1183493901
      objectReference: {fileID: 0}
    - target: {fileID: 1809485146119380107, guid: ddc92421a5af8d14a88191f7eda0c809, type: 3}
      propertyPath: m_VerticalAlignment
      value: 512
      objectReference: {fileID: 0}
    - target: {fileID: 1809485146119380107, guid: ddc92421a5af8d14a88191f7eda0c809, type: 3}
      propertyPath: m_HorizontalAlignment
      value: 2
      objectReference: {fileID: 0}
    - target: {fileID: 8430617847548172268, guid: ddc92421a5af8d14a88191f7eda0c809, type: 3}
      propertyPath: m_Name
      value: Title
      objectReference: {fileID: 0}
    m_RemovedComponents: []
  m_SourcePrefab: {fileID: 100100000, guid: ddc92421a5af8d14a88191f7eda0c809, type: 3}
--- !u!1001 &9038507289435632412
PrefabInstance:
  m_ObjectHideFlags: 0
  serializedVersion: 2
  m_Modification:
    m_TransformParent: {fileID: 0}
    m_Modifications:
    - target: {fileID: 537752718965506357, guid: 90fd3437e875c194989cb9cf2451e37a, type: 3}
      propertyPath: m_SizeDelta.x
      value: 0
      objectReference: {fileID: 0}
    - target: {fileID: 537752718965506357, guid: 90fd3437e875c194989cb9cf2451e37a, type: 3}
      propertyPath: m_SizeDelta.y
      value: 0
      objectReference: {fileID: 0}
    - target: {fileID: 788331170003975682, guid: 90fd3437e875c194989cb9cf2451e37a, type: 3}
      propertyPath: m_AnchorMax.y
      value: 0
      objectReference: {fileID: 0}
    - target: {fileID: 788331170003975682, guid: 90fd3437e875c194989cb9cf2451e37a, type: 3}
      propertyPath: m_AnchorMin.y
      value: 0
      objectReference: {fileID: 0}
    - target: {fileID: 788331170003975682, guid: 90fd3437e875c194989cb9cf2451e37a, type: 3}
      propertyPath: m_SizeDelta.x
      value: 0
      objectReference: {fileID: 0}
    - target: {fileID: 788331170003975682, guid: 90fd3437e875c194989cb9cf2451e37a, type: 3}
      propertyPath: m_SizeDelta.y
      value: 0
      objectReference: {fileID: 0}
    - target: {fileID: 788331170003975682, guid: 90fd3437e875c194989cb9cf2451e37a, type: 3}
      propertyPath: m_AnchoredPosition.x
      value: 0
      objectReference: {fileID: 0}
    - target: {fileID: 788331170003975682, guid: 90fd3437e875c194989cb9cf2451e37a, type: 3}
      propertyPath: m_AnchoredPosition.y
      value: 0
      objectReference: {fileID: 0}
    - target: {fileID: 1492834643259258528, guid: 90fd3437e875c194989cb9cf2451e37a, type: 3}
      propertyPath: ViewName
      value: Pause
      objectReference: {fileID: 0}
    - target: {fileID: 1492834643259258528, guid: 90fd3437e875c194989cb9cf2451e37a, type: 3}
      propertyPath: ViewCategory
      value: Gameplay
      objectReference: {fileID: 0}
    - target: {fileID: 2262106781517780484, guid: 90fd3437e875c194989cb9cf2451e37a, type: 3}
      propertyPath: m_Pivot.x
      value: 0.5
      objectReference: {fileID: 0}
    - target: {fileID: 2262106781517780484, guid: 90fd3437e875c194989cb9cf2451e37a, type: 3}
      propertyPath: m_Pivot.y
      value: 0.5
      objectReference: {fileID: 0}
    - target: {fileID: 2262106781517780484, guid: 90fd3437e875c194989cb9cf2451e37a, type: 3}
      propertyPath: m_RootOrder
      value: 0
      objectReference: {fileID: 0}
    - target: {fileID: 2262106781517780484, guid: 90fd3437e875c194989cb9cf2451e37a, type: 3}
      propertyPath: m_AnchorMax.x
      value: 1
      objectReference: {fileID: 0}
    - target: {fileID: 2262106781517780484, guid: 90fd3437e875c194989cb9cf2451e37a, type: 3}
      propertyPath: m_AnchorMax.y
      value: 1
      objectReference: {fileID: 0}
    - target: {fileID: 2262106781517780484, guid: 90fd3437e875c194989cb9cf2451e37a, type: 3}
      propertyPath: m_AnchorMin.x
      value: 0
      objectReference: {fileID: 0}
    - target: {fileID: 2262106781517780484, guid: 90fd3437e875c194989cb9cf2451e37a, type: 3}
      propertyPath: m_AnchorMin.y
      value: 0
      objectReference: {fileID: 0}
    - target: {fileID: 2262106781517780484, guid: 90fd3437e875c194989cb9cf2451e37a, type: 3}
      propertyPath: m_SizeDelta.x
      value: 0
      objectReference: {fileID: 0}
    - target: {fileID: 2262106781517780484, guid: 90fd3437e875c194989cb9cf2451e37a, type: 3}
      propertyPath: m_SizeDelta.y
      value: 0
      objectReference: {fileID: 0}
    - target: {fileID: 2262106781517780484, guid: 90fd3437e875c194989cb9cf2451e37a, type: 3}
      propertyPath: m_LocalPosition.x
      value: 0
      objectReference: {fileID: 0}
    - target: {fileID: 2262106781517780484, guid: 90fd3437e875c194989cb9cf2451e37a, type: 3}
      propertyPath: m_LocalPosition.y
      value: 0
      objectReference: {fileID: 0}
    - target: {fileID: 2262106781517780484, guid: 90fd3437e875c194989cb9cf2451e37a, type: 3}
      propertyPath: m_LocalPosition.z
      value: 0
      objectReference: {fileID: 0}
    - target: {fileID: 2262106781517780484, guid: 90fd3437e875c194989cb9cf2451e37a, type: 3}
      propertyPath: m_LocalRotation.w
      value: 1
      objectReference: {fileID: 0}
    - target: {fileID: 2262106781517780484, guid: 90fd3437e875c194989cb9cf2451e37a, type: 3}
      propertyPath: m_LocalRotation.x
      value: 0
      objectReference: {fileID: 0}
    - target: {fileID: 2262106781517780484, guid: 90fd3437e875c194989cb9cf2451e37a, type: 3}
      propertyPath: m_LocalRotation.y
      value: 0
      objectReference: {fileID: 0}
    - target: {fileID: 2262106781517780484, guid: 90fd3437e875c194989cb9cf2451e37a, type: 3}
      propertyPath: m_LocalRotation.z
      value: 0
      objectReference: {fileID: 0}
    - target: {fileID: 2262106781517780484, guid: 90fd3437e875c194989cb9cf2451e37a, type: 3}
      propertyPath: m_AnchoredPosition.x
      value: -2218
      objectReference: {fileID: 0}
    - target: {fileID: 2262106781517780484, guid: 90fd3437e875c194989cb9cf2451e37a, type: 3}
      propertyPath: m_AnchoredPosition.y
      value: 0
      objectReference: {fileID: 0}
    - target: {fileID: 2262106781517780484, guid: 90fd3437e875c194989cb9cf2451e37a, type: 3}
      propertyPath: m_LocalEulerAnglesHint.x
      value: 0
      objectReference: {fileID: 0}
    - target: {fileID: 2262106781517780484, guid: 90fd3437e875c194989cb9cf2451e37a, type: 3}
      propertyPath: m_LocalEulerAnglesHint.y
      value: 0
      objectReference: {fileID: 0}
    - target: {fileID: 2262106781517780484, guid: 90fd3437e875c194989cb9cf2451e37a, type: 3}
      propertyPath: m_LocalEulerAnglesHint.z
      value: 0
      objectReference: {fileID: 0}
    - target: {fileID: 2697780475847472030, guid: 90fd3437e875c194989cb9cf2451e37a, type: 3}
      propertyPath: m_AnchorMax.y
      value: 0
      objectReference: {fileID: 0}
    - target: {fileID: 2697780475847472030, guid: 90fd3437e875c194989cb9cf2451e37a, type: 3}
      propertyPath: m_AnchorMin.y
      value: 0
      objectReference: {fileID: 0}
    - target: {fileID: 2697780475847472030, guid: 90fd3437e875c194989cb9cf2451e37a, type: 3}
      propertyPath: m_SizeDelta.x
      value: 0
      objectReference: {fileID: 0}
    - target: {fileID: 2697780475847472030, guid: 90fd3437e875c194989cb9cf2451e37a, type: 3}
      propertyPath: m_SizeDelta.y
      value: 0
      objectReference: {fileID: 0}
    - target: {fileID: 2697780475847472030, guid: 90fd3437e875c194989cb9cf2451e37a, type: 3}
      propertyPath: m_AnchoredPosition.x
      value: 0
      objectReference: {fileID: 0}
    - target: {fileID: 2697780475847472030, guid: 90fd3437e875c194989cb9cf2451e37a, type: 3}
      propertyPath: m_AnchoredPosition.y
      value: 0
      objectReference: {fileID: 0}
    - target: {fileID: 2810628825615343550, guid: 90fd3437e875c194989cb9cf2451e37a, type: 3}
      propertyPath: m_AnchorMax.y
      value: 0
      objectReference: {fileID: 0}
    - target: {fileID: 2810628825615343550, guid: 90fd3437e875c194989cb9cf2451e37a, type: 3}
      propertyPath: m_AnchorMin.y
      value: 0
      objectReference: {fileID: 0}
    - target: {fileID: 2810628825615343550, guid: 90fd3437e875c194989cb9cf2451e37a, type: 3}
      propertyPath: m_SizeDelta.x
      value: 0
      objectReference: {fileID: 0}
    - target: {fileID: 2810628825615343550, guid: 90fd3437e875c194989cb9cf2451e37a, type: 3}
      propertyPath: m_SizeDelta.y
      value: 0
      objectReference: {fileID: 0}
    - target: {fileID: 2810628825615343550, guid: 90fd3437e875c194989cb9cf2451e37a, type: 3}
      propertyPath: m_AnchoredPosition.x
      value: 0
      objectReference: {fileID: 0}
    - target: {fileID: 2810628825615343550, guid: 90fd3437e875c194989cb9cf2451e37a, type: 3}
      propertyPath: m_AnchoredPosition.y
      value: 0
      objectReference: {fileID: 0}
    - target: {fileID: 2828421390216640805, guid: 90fd3437e875c194989cb9cf2451e37a, type: 3}
      propertyPath: m_Name
      value: Pause Panel Variant
      objectReference: {fileID: 0}
    - target: {fileID: 3220418430713434220, guid: 90fd3437e875c194989cb9cf2451e37a, type: 3}
      propertyPath: m_AnchorMax.y
      value: 0
      objectReference: {fileID: 0}
    - target: {fileID: 3220418430713434220, guid: 90fd3437e875c194989cb9cf2451e37a, type: 3}
      propertyPath: m_AnchorMin.y
      value: 0
      objectReference: {fileID: 0}
    - target: {fileID: 3220418430713434220, guid: 90fd3437e875c194989cb9cf2451e37a, type: 3}
      propertyPath: m_SizeDelta.x
      value: 0
      objectReference: {fileID: 0}
    - target: {fileID: 3220418430713434220, guid: 90fd3437e875c194989cb9cf2451e37a, type: 3}
      propertyPath: m_SizeDelta.y
      value: 0
      objectReference: {fileID: 0}
    - target: {fileID: 3220418430713434220, guid: 90fd3437e875c194989cb9cf2451e37a, type: 3}
      propertyPath: m_AnchoredPosition.x
      value: 0
      objectReference: {fileID: 0}
    - target: {fileID: 3220418430713434220, guid: 90fd3437e875c194989cb9cf2451e37a, type: 3}
      propertyPath: m_AnchoredPosition.y
      value: 0
      objectReference: {fileID: 0}
    - target: {fileID: 3940572963528199976, guid: 90fd3437e875c194989cb9cf2451e37a, type: 3}
      propertyPath: ButtonName
      value: Back
      objectReference: {fileID: 0}
    - target: {fileID: 3940572963528199976, guid: 90fd3437e875c194989cb9cf2451e37a, type: 3}
      propertyPath: ButtonCategory
      value: General
      objectReference: {fileID: 0}
    - target: {fileID: 6438157393813327352, guid: 90fd3437e875c194989cb9cf2451e37a, type: 3}
      propertyPath: m_AnchorMax.y
      value: 0
      objectReference: {fileID: 0}
    - target: {fileID: 6438157393813327352, guid: 90fd3437e875c194989cb9cf2451e37a, type: 3}
      propertyPath: m_AnchorMin.y
      value: 0
      objectReference: {fileID: 0}
    - target: {fileID: 6438157393813327352, guid: 90fd3437e875c194989cb9cf2451e37a, type: 3}
      propertyPath: m_SizeDelta.y
      value: 0
      objectReference: {fileID: 0}
    - target: {fileID: 6438157393813327352, guid: 90fd3437e875c194989cb9cf2451e37a, type: 3}
      propertyPath: m_AnchoredPosition.x
      value: 0
      objectReference: {fileID: 0}
    - target: {fileID: 6438157393813327352, guid: 90fd3437e875c194989cb9cf2451e37a, type: 3}
      propertyPath: m_AnchoredPosition.y
      value: 0
      objectReference: {fileID: 0}
    m_RemovedComponents: []
  m_SourcePrefab: {fileID: 100100000, guid: 90fd3437e875c194989cb9cf2451e37a, type: 3}
--- !u!224 &8619763760088911134 stripped
RectTransform:
  m_CorrespondingSourceObject: {fileID: 788331170003975682, guid: 90fd3437e875c194989cb9cf2451e37a, type: 3}
  m_PrefabInstance: {fileID: 9038507289435632412}
  m_PrefabAsset: {fileID: 0}
--- !u!224 &6516258390741642402 stripped
RectTransform:
  m_CorrespondingSourceObject: {fileID: 2810628825615343550, guid: 90fd3437e875c194989cb9cf2451e37a, type: 3}
  m_PrefabInstance: {fileID: 9038507289435632412}
  m_PrefabAsset: {fileID: 0}
