%YAML 1.1
%TAG !u! tag:unity3d.com,2011:
--- !u!114 &11400000
MonoBehaviour:
  m_ObjectHideFlags: 0
  m_CorrespondingSourceObject: {fileID: 0}
  m_PrefabInstance: {fileID: 0}
  m_PrefabAsset: {fileID: 0}
  m_GameObject: {fileID: 0}
  m_Enabled: 1
  m_EditorHideFlags: 0
  m_Script: {fileID: 11500000, guid: 7c709c16b3374c1db943026f8a8564a1, type: 3}
  m_Name: LevelConfig
  m_EditorClassIdentifier: 
  EnemySpawns:
  - EnemyConfig: {fileID: 11400000, guid: 4822657acc3bd274eb787e4fc37e6f5c, type: 2}
    Count: 1
    Spread: 0
    StartSpawnTime: 1
    LifetimeLimitationType: 0
    EndSpawnTime: 180
    TriggersNumber: 0
    SpawnRate: 1
  - EnemyConfig: {fileID: 11400000, guid: cbc24094e4d2aca42b3df0eb5e016bec, type: 2}
    Count: 1
    Spread: 0
    StartSpawnTime: 60
    LifetimeLimitationType: 0
    EndSpawnTime: 120
    TriggersNumber: 0
    SpawnRate: 1
  - EnemyConfig: {fileID: 11400000, guid: efe2703bfbfc8b24a9fecde0841019c1, type: 2}
    Count: 1
    Spread: 0
    StartSpawnTime: 60
    LifetimeLimitationType: 1
    EndSpawnTime: 0
    TriggersNumber: 1
    SpawnRate: 1
  - EnemyConfig: {fileID: 11400000, guid: 4822657acc3bd274eb787e4fc37e6f5c, type: 2}
    Count: 1
    Spread: 1
    StartSpawnTime: 120
    LifetimeLimitationType: 0
    EndSpawnTime: 180
    TriggersNumber: 0
    SpawnRate: 0.5
  - EnemyConfig: {fileID: 11400000, guid: b41f48b37eb154c4ca99188b43ba66f3, type: 2}
    Count: 1
    Spread: 0
    StartSpawnTime: 180
    LifetimeLimitationType: 0
    EndSpawnTime: 240
    TriggersNumber: 0
    SpawnRate: 0.25
  - EnemyConfig: {fileID: 11400000, guid: b41f48b37eb154c4ca99188b43ba66f3, type: 2}
    Count: 1
    Spread: 0
    StartSpawnTime: 240
    LifetimeLimitationType: 0
    EndSpawnTime: 300
    TriggersNumber: 0
    SpawnRate: 1
  - EnemyConfig: {fileID: 11400000, guid: dd95b4365f219aa42813a29d836ce22f, type: 2}
    Count: 2
    Spread: 1
    StartSpawnTime: 240
    LifetimeLimitationType: 0
    EndSpawnTime: 300
    TriggersNumber: 0
    SpawnRate: 1
  - EnemyConfig: {fileID: 11400000, guid: de8ea8e2f73c35545aa3c1629549b400, type: 2}
    Count: 1
    Spread: 0
    StartSpawnTime: 300
    LifetimeLimitationType: 0
    EndSpawnTime: 360
    TriggersNumber: 0
    SpawnRate: 1
  - EnemyConfig: {fileID: 11400000, guid: 056ba2cca641bcc4888f1b7b3e254e46, type: 2}
    Count: 1
    Spread: 0
    StartSpawnTime: 300
    LifetimeLimitationType: 1
    EndSpawnTime: 0
    TriggersNumber: 1
    SpawnRate: 0
  - EnemyConfig: {fileID: 11400000, guid: de8ea8e2f73c35545aa3c1629549b400, type: 2}
    Count: 1
    Spread: 0
    StartSpawnTime: 360
    LifetimeLimitationType: 0
    EndSpawnTime: 420
    TriggersNumber: 0
    SpawnRate: 1
  - EnemyConfig: {fileID: 11400000, guid: cbc24094e4d2aca42b3df0eb5e016bec, type: 2}
    Count: 1
    Spread: 0
    StartSpawnTime: 360
    LifetimeLimitationType: 0
    EndSpawnTime: 420
    TriggersNumber: 0
    SpawnRate: 1
  - EnemyConfig: {fileID: 11400000, guid: 4822657acc3bd274eb787e4fc37e6f5c, type: 2}
    Count: 2
    Spread: 0.5
    StartSpawnTime: 420
    LifetimeLimitationType: 0
    EndSpawnTime: 480
    TriggersNumber: 0
    SpawnRate: 0.5
  - EnemyConfig: {fileID: 11400000, guid: 86e2a1215817ad04ab7ea1369f5cad52, type: 2}
    Count: 1
    Spread: 0
    StartSpawnTime: 420
    LifetimeLimitationType: 0
    EndSpawnTime: 480
    TriggersNumber: 0
    SpawnRate: 1
  - EnemyConfig: {fileID: 11400000, guid: efe2703bfbfc8b24a9fecde0841019c1, type: 2}
    Count: 1
    Spread: 0
    StartSpawnTime: 420
    LifetimeLimitationType: 1
    EndSpawnTime: 0
    TriggersNumber: 1
    SpawnRate: 1
  - EnemyConfig: {fileID: 11400000, guid: cbc24094e4d2aca42b3df0eb5e016bec, type: 2}
    Count: 7
    Spread: 3
    StartSpawnTime: 480
    LifetimeLimitationType: 0
    EndSpawnTime: 600
    TriggersNumber: 0
    SpawnRate: 1.5
  - EnemyConfig: {fileID: 11400000, guid: dd95b4365f219aa42813a29d836ce22f, type: 2}
    Count: 3
    Spread: 0.5
    StartSpawnTime: 540
    LifetimeLimitationType: 0
    EndSpawnTime: 600
    TriggersNumber: 0
    SpawnRate: 1
  - EnemyConfig: {fileID: 11400000, guid: de8ea8e2f73c35545aa3c1629549b400, type: 2}
    Count: 2
    Spread: 1
    StartSpawnTime: 540
    LifetimeLimitationType: 0
    EndSpawnTime: 600
    TriggersNumber: 0
    SpawnRate: 1
