%YAML 1.1
%TAG !u! tag:unity3d.com,2011:
--- !u!114 &11400000
MonoBehaviour:
  m_ObjectHideFlags: 0
  m_CorrespondingSourceObject: {fileID: 0}
  m_PrefabInstance: {fileID: 0}
  m_PrefabAsset: {fileID: 0}
  m_GameObject: {fileID: 0}
  m_Enabled: 1
  m_EditorHideFlags: 0
  m_Script: {fileID: 11500000, guid: d0322d6252d34314481e61d54ce0ff9b, type: 3}
  m_Name: PlayerConfig
  m_EditorClassIdentifier: 
  Prefab: {fileID: 2934681855843863581, guid: 1aae0b5adaedfc146a2cfb561834439c, type: 3}
  Health: 400
  Speed: 2.8
  BaseWeapons: 00000000
