%YAML 1.1
%TAG !u! tag:unity3d.com,2011:
--- !u!1001 &4852478025460319993
PrefabInstance:
  m_ObjectHideFlags: 0
  serializedVersion: 2
  m_Modification:
    m_TransformParent: {fileID: 0}
    m_Modifications:
    - target: {fileID: 3878621470058481713, guid: 472fca7148b5d0d4ebe04e2a432f17e7, type: 3}
      propertyPath: m_Mesh
      value: 
      objectReference: {fileID: 4300000, guid: 5a584f3f02503d140ba065d45c75d3be, type: 3}
    - target: {fileID: 4297022881999351052, guid: 472fca7148b5d0d4ebe04e2a432f17e7, type: 3}
      propertyPath: m_Name
      value: GiantMantis
      objectReference: {fileID: 0}
    - target: {fileID: 4646229851916797235, guid: 472fca7148b5d0d4ebe04e2a432f17e7, type: 3}
      propertyPath: m_LocalScale.x
      value: 7
      objectReference: {fileID: 0}
    - target: {fileID: 4646229851916797235, guid: 472fca7148b5d0d4ebe04e2a432f17e7, type: 3}
      propertyPath: m_LocalScale.y
      value: 7
      objectReference: {fileID: 0}
    - target: {fileID: 4646229851916797235, guid: 472fca7148b5d0d4ebe04e2a432f17e7, type: 3}
      propertyPath: m_LocalScale.z
      value: 7
      objectReference: {fileID: 0}
    - target: {fileID: 5237258893849171852, guid: 472fca7148b5d0d4ebe04e2a432f17e7, type: 3}
      propertyPath: m_Materials.Array.data[0]
      value: 
      objectReference: {fileID: 2100000, guid: 8929e518663dd27448a7695e0af15c49, type: 2}
    - target: {fileID: 5476014852122701185, guid: 472fca7148b5d0d4ebe04e2a432f17e7, type: 3}
      propertyPath: m_RootOrder
      value: 0
      objectReference: {fileID: 0}
    - target: {fileID: 5476014852122701185, guid: 472fca7148b5d0d4ebe04e2a432f17e7, type: 3}
      propertyPath: m_LocalPosition.x
      value: 0
      objectReference: {fileID: 0}
    - target: {fileID: 5476014852122701185, guid: 472fca7148b5d0d4ebe04e2a432f17e7, type: 3}
      propertyPath: m_LocalPosition.y
      value: 0
      objectReference: {fileID: 0}
    - target: {fileID: 5476014852122701185, guid: 472fca7148b5d0d4ebe04e2a432f17e7, type: 3}
      propertyPath: m_LocalPosition.z
      value: 0
      objectReference: {fileID: 0}
    - target: {fileID: 5476014852122701185, guid: 472fca7148b5d0d4ebe04e2a432f17e7, type: 3}
      propertyPath: m_LocalRotation.w
      value: 1
      objectReference: {fileID: 0}
    - target: {fileID: 5476014852122701185, guid: 472fca7148b5d0d4ebe04e2a432f17e7, type: 3}
      propertyPath: m_LocalRotation.x
      value: 0
      objectReference: {fileID: 0}
    - target: {fileID: 5476014852122701185, guid: 472fca7148b5d0d4ebe04e2a432f17e7, type: 3}
      propertyPath: m_LocalRotation.y
      value: 0
      objectReference: {fileID: 0}
    - target: {fileID: 5476014852122701185, guid: 472fca7148b5d0d4ebe04e2a432f17e7, type: 3}
      propertyPath: m_LocalRotation.z
      value: 0
      objectReference: {fileID: 0}
    - target: {fileID: 5476014852122701185, guid: 472fca7148b5d0d4ebe04e2a432f17e7, type: 3}
      propertyPath: m_LocalEulerAnglesHint.x
      value: 0
      objectReference: {fileID: 0}
    - target: {fileID: 5476014852122701185, guid: 472fca7148b5d0d4ebe04e2a432f17e7, type: 3}
      propertyPath: m_LocalEulerAnglesHint.y
      value: 0
      objectReference: {fileID: 0}
    - target: {fileID: 5476014852122701185, guid: 472fca7148b5d0d4ebe04e2a432f17e7, type: 3}
      propertyPath: m_LocalEulerAnglesHint.z
      value: 0
      objectReference: {fileID: 0}
    - target: {fileID: 5724653075656028159, guid: 472fca7148b5d0d4ebe04e2a432f17e7, type: 3}
      propertyPath: value.EnemyConfig
      value: 
      objectReference: {fileID: 11400000, guid: 056ba2cca641bcc4888f1b7b3e254e46, type: 2}
    m_RemovedComponents: []
  m_SourcePrefab: {fileID: 100100000, guid: 472fca7148b5d0d4ebe04e2a432f17e7, type: 3}
